<?xml version="1.0" encoding="UTF-8"?>
<robot generator="Robot 7.0 (Python 3.14.3 on win32)" generated="2026-02-22T13:17:43.082613" rpa="false" schemaversion="5">
<suite id="s1" name="Qa-Api-Automation" source="C:\Projetos\qa-api-automation">
<suite id="s1-s1" name="Tests" source="C:\Projetos\qa-api-automation\tests">
<suite id="s1-s1-s1" name="Reqres" source="C:\Projetos\qa-api-automation\tests\reqres.robot">
<kw name="Create Session" owner="RequestsLibrary" type="SETUP">
<msg time="2026-02-22T13:17:43.199687" level="INFO">Creating Session using : alias=reqres, url=https://reqres.in, headers={'User-Agent': 'reqres-qa-tests/1.0', 'x-api-key': 'reqres_55e33433cf954f2a89973659da8829b2'},                     cookies={}, auth=None, timeout=None, proxies=None, verify=False,                     debug=0 </msg>
<arg>reqres</arg>
<arg>https://reqres.in</arg>
<arg>headers=${DEFAULT_HEADERS}</arg>
<doc>Create Session: create a HTTP session to a server</doc>
<status status="PASS" start="2026-02-22T13:17:43.199392" elapsed="0.000555"/>
</kw>
<test id="s1-s1-s1-t1" name="GET lista de usuarios (ReqRes)" line="9">
<kw name="GET On Session" owner="RequestsLibrary">
<msg time="2026-02-22T13:17:43.267342" level="INFO">GET Request : url=https://reqres.in/api/users?page=2 
 path_url=/api/users?page=2 
 headers={'User-Agent': 'reqres-qa-tests/1.0', 'Accept-Encoding': 'gzip, deflate, zstd', 'Accept': '*/*', 'Connection': 'keep-alive', 'x-api-key': 'reqres_55e33433cf954f2a89973659da8829b2'} 
 body=None 
 </msg>
<msg time="2026-02-22T13:17:43.267710" level="INFO">GET Response : url=https://reqres.in/api/users?page=2 
 status=200, reason=OK 
 headers={'Date': 'Sun, 22 Feb 2026 16:14:34 GMT', 'Content-Type': 'application/json; charset=utf-8', 'Transfer-Encoding': 'chunked', 'Connection': 'keep-alive', 'Access-Control-Allow-Credentials': 'true', 'Access-Control-Allow-Headers': 'Origin, X-Requested-With, Content-Type, Accept, Authorization, x-api-key', 'Access-Control-Allow-Methods': 'GET, POST, PUT, DELETE, OPTIONS', 'Access-Control-Allow-Origin': 'http://localhost:5173', 'Etag': 'W/"5bd-IehClSk1MQgONMf8cROuG0ZY+BQ"', 'Nel': '{"report_to":"heroku-nel","response_headers":["Via"],"max_age":3600,"success_fraction":0.01,"failure_fraction":0.1}', 'Ratelimit-Limit': '20', 'Ratelimit-Policy': '20;w=60', 'Ratelimit-Remaining': '19', 'Ratelimit-Reset': '60', 'Referrer-Policy': 'strict-origin-when-cross-origin', 'Report-To': '{"group":"heroku-nel","endpoints":[{"url":"https://nel.heroku.com/reports?s=mKvBs25ziFB6%2FH0gDec6suQidObvkUFJAzzeTVUhE0Y%3D\\u0026sid=c4c9725f-1ab0-44d8-820f-430df2718e11\\u0026ts=1771776582"}],"max_age":3600}', 'Reporting-Endpoints': 'heroku-nel="https://nel.heroku.com/reports?s=mKvBs25ziFB6%2FH0gDec6suQidObvkUFJAzzeTVUhE0Y%3D&amp;sid=c4c9725f-1ab0-44d8-820f-430df2718e11&amp;ts=1771776582"', 'Server': 'cloudflare', 'Vary': 'Origin', 'Via': '1.1 heroku-router', 'X-Content-Type-Options': 'nosniff', 'X-Frame-Options': 'DENY', 'X-Powered-By': 'ReqRes.in - Deploy backends in 30 seconds', 'X-Ratelimit-Limit': '250', 'X-Ratelimit-Remaining': '249', 'X-Ratelimit-Reset': '1771804800', 'X-Reqres-Docs': 'https://reqres.in', 'X-Reqres-Message': 'This API is powered by ReqRes. Deploy your own backend in 30 seconds!', 'X-Reqres-Templates': 'https://app.reqres.in/templates', 'X-Reqres-Trial': 'true', 'X-Reqres-Trial-Days-Remaining': '14', 'X-Reqres-Trial-Expires': '2026-03-08T16:07:06.431Z', 'X-Reqres-Upgrade': 'https://app.reqres.in/upgrade', 'X-Request-Id': '0352256f-863e-51d0-2615-18f8157c2a85', 'X-Robots-Tag': 'noindex, nofollow', 'X-Xss-Protection': '1; mode=block', 'Age': '291', 'Cache-Control': 'max-age=14400', 'cf-cache-status': 'HIT', 'Content-Encoding': 'gzip', 'CF-RAY': '9d1fc6f9ac1513de-GRU'} 
 body={"page":2,"per_page":6,"total":12,"total_pages":2,"data":[{"id":7,"email":"michael.lawson@reqres.in","first_name":"Michael","last_name":"Lawson","avatar":"https://reqres.in/img/faces/7-image.jpg"},{"id":8,"email":"lindsay.ferguson@reqres.in","first_name":"Lindsay","last_name":"Ferguson","avatar":"https://reqres.in/img/faces/8-image.jpg"},{"id":9,"email":"tobias.funke@reqres.in","first_name":"Tobias","last_name":"Funke","avatar":"https://reqres.in/img/faces/9-image.jpg"},{"id":10,"email":"byron.fields@reqres.in","first_name":"Byron","last_name":"Fields","avatar":"https://reqres.in/img/faces/10-image.jpg"},{"id":11,"email":"george.edwards@reqres.in","first_name":"George","last_name":"Edwards","avatar":"https://reqres.in/img/faces/11-image.jpg"},{"id":12,"email":"rachel.howell@reqres.in","first_name":"Rachel","last_name":"Howell","avatar":"https://reqres.in/img/faces/12-image.jpg"}],"support":{"url":"https://contentcaddy.io?utm_source=reqres&amp;utm_medium=json&amp;utm_campaign=referral","text":"Tired of writing endless social media content? Let Content Caddy generate it for you."},"_meta":{"powered_by":"ReqRes","docs_url":"https://app.reqres.in/documentation","upgrade_url":"https://app.reqres.in/upgrade","example_url":"https://app.reqres.in/examples/notes-app","variant":"v1_b","message":"Need more than fake data? Projects give you real CRUD + auth in minutes.","cta":{"label":"Get started","url":"https://app.reqres.in/upgrade"},"context":"legacy_success"}} 
 </msg>
<msg time="2026-02-22T13:17:43.267961" level="INFO">C:\Users\edmar\AppData\Roaming\Python\Python314\site-packages\urllib3\connectionpool.py:1097: InsecureRequestWarning: Unverified HTTPS request is being made to host 'reqres.in'. Adding certificate verification is strongly advised. See: https://urllib3.readthedocs.io/en/latest/advanced-usage.html#tls-warnings
  warnings.warn(</msg>
<msg time="2026-02-22T13:17:43.268290" level="INFO">${resp} = &lt;Response [200]&gt;</msg>
<var>${resp}</var>
<arg>reqres</arg>
<arg>/api/users</arg>
<arg>params=page=2</arg>
<arg>expected_status=200</arg>
<doc>Sends a GET request on a previously created HTTP Session.</doc>
<status status="PASS" start="2026-02-22T13:17:43.203001" elapsed="0.065583"/>
</kw>
<kw name="Should Be Equal As Numbers" owner="BuiltIn">
<msg time="2026-02-22T13:17:43.269395" level="INFO">Argument types are:
&lt;class 'int'&gt;
&lt;class 'str'&gt;</msg>
<arg>${resp.status_code}</arg>
<arg>200</arg>
<doc>Fails if objects are unequal after converting them to real numbers.</doc>
<status status="PASS" start="2026-02-22T13:17:43.268952" elapsed="0.000626"/>
</kw>
<status status="PASS" start="2026-02-22T13:17:43.200111" elapsed="0.069729"/>
</test>
<status status="PASS" start="2026-02-22T13:17:43.122490" elapsed="0.149472"/>
</suite>
<status status="PASS" start="2026-02-22T13:17:43.119618" elapsed="0.154398"/>
</suite>
<status status="PASS" start="2026-02-22T13:17:43.086413" elapsed="0.194234"/>
</suite>
<statistics>
<total>
<stat pass="1" fail="0" skip="0">All Tests</stat>
</total>
<tag>
</tag>
<suite>
<stat pass="1" fail="0" skip="0" id="s1" name="Qa-Api-Automation">Qa-Api-Automation</stat>
<stat pass="1" fail="0" skip="0" id="s1-s1" name="Tests">Qa-Api-Automation.Tests</stat>
<stat pass="1" fail="0" skip="0" id="s1-s1-s1" name="Reqres">Qa-Api-Automation.Tests.Reqres</stat>
</suite>
</statistics>
<errors>
</errors>
</robot>
